Id,SalePrice
1461,118317.0734428168
1462,158769.4506436192
1463,183505.3431662658
1464,192554.8821088961
1465,193743.399530586
1466,175823.8815782715
1467,170251.39192059572
1468,168595.67229573164
1469,196691.66249949878
1470,125641.20324938983
1471,189156.70271845927
1472,96394.23163862959
1473,97744.7872187086
1474,153245.10515068096
1475,123403.12082503636
1476,372258.2277287597
1477,253229.03405123932
1478,300756.71749828063
1479,278838.352084096
1480,426380.994397367
1481,334118.7166931156
1482,212054.1761621496
1483,179091.8535540488
1484,169848.94471019902
1485,187860.4672539772
1486,197656.90607019982
1487,321001.90024447965
1488,231745.87158244778
1489,201749.86110024765
1490,221256.86165341595
1491,196558.38205293185
1492,97508.68225033072
1493,186795.85042696903
1494,305955.25434556237
1495,300881.53624412866
1496,234353.3364499791
1497,190906.40654899643
1498,166829.7057475751
1499,166538.46610237748
1500,158839.90653988972
1501,177894.04213568658
1502,157272.4052553955
1503,282513.92082261085
1504,243717.81385691385
1505,226923.6618788192
1506,189732.92660003778
1507,234782.20539968833
1508,200308.51489979317
1509,164077.86448601028
1510,151142.26432632902
1511,149331.14430347478
1512,171421.67191381395
1513,146466.9557319059
1514,157225.8746269919
1515,191495.5083383902
1516,159752.13182680617
1517,160336.40571932576
1518,136335.5299085853
1519,212020.49570418498
1520,133245.0238263324
1521,138002.6725256688
1522,178030.2161118044
1523,115361.69308162667
1524,127119.958417029
1525,125032.42404106836
1526,122336.16491725479
1527,110870.41514898464
1528,132397.58168022247
1529,150769.30611051
1530,179339.66262554438
1531,125051.3166195647
1532,103726.0331836508
1533,143948.0684768692
1534,121433.21578908202
1535,147413.20132755116
1536,112900.29612032927
1537,69458.10498270937
1538,163471.4396684571
1539,205591.3346543528
1540,101539.7326589246
1541,144968.01651071105
1542,136340.55100354346
1543,192880.63931484194
1544,82000.51139201784
1545,111657.67819335574
1546,131256.9799858038
1547,131025.09028136953
1548,131625.09926055052
1549,112064.11412545323
1550,143399.16146730096
1551,117941.50392594139
1552,140566.8561746919
1553,143404.02303997037
1554,118155.9265678625
1555,170499.59998835422
1556,96874.76734322963
1557,110397.38605015218
1558,97681.1175082243
1559,89771.22454752024
1560,142947.97800648864
1561,128830.6536925995
1562,130739.54337855568
1563,125968.44255589506
1564,164554.6073797399
1565,155964.59093966248
1566,238352.24549933829
1567,83384.39456060235
1568,232485.90099741772
1569,135637.4607705828
1570,132934.09457906146
1571,121316.02624862091
1572,141106.16195650175
1573,232712.7654074972
1574,118831.91364338633
1575,231136.22728379458
1576,228061.79718523726
1577,187514.97530366457
1578,153922.87307919844
1579,147497.7787201182
1580,194088.41865085287
1581,149074.31614567782
1582,130483.26740601574
1583,305882.54031140887
1584,227018.5421875624
1585,142045.45107428753
1586,67405.13156815882
1587,108870.56404413596
1588,146097.09846090028
1589,98733.98524717719
1590,131466.86027218142
1591,99026.81968250303
1592,120963.32288531665
1593,129476.67545461538
1594,120905.1315496727
1595,113324.60933232764
1596,230992.13547705792
1597,183139.82132768357
1598,204782.27630007188
1599,178595.67739788676
1600,171693.8637840564
1601,73186.2670500241
1602,111530.74715268674
1603,95061.30293778397
1604,256909.03067529463
1605,254570.9059851635
1606,167603.01813112138
1607,169968.81799768083
1608,217041.75030788648
1609,188137.5518082335
1610,155858.12548686148
1611,147112.87370543554
1612,169566.99334407385
1613,164650.02598569717
1614,125323.17457976962
1615,92624.1246589362
1616,83321.44105359574
1617,92726.98364910757
1618,126332.99880453324
1619,142151.49674766307
1620,148912.3914122059
1621,140968.06325645003
1622,146608.9963254591
1623,279215.20043068525
1624,215402.54148770342
1625,125689.38447850225
1626,172717.46658587758
1627,189563.17102822012
1628,281829.61156553094
1629,180931.901030154
1630,327289.50461723126
1631,221351.80319208282
1632,250687.6357450464
1633,176184.22462855148
1634,189745.68868396705
1635,180617.15477224512
1636,158036.39703482468
1637,189554.7611033578
1638,198359.68450711074
1639,186986.98743174056
1640,251164.55989940173
1641,185885.14160356674
1642,237641.53317838808
1643,227588.03175490815
1644,237603.04120570945
1645,189443.43288037626
1646,161089.51915621283
1647,166213.92879850898
1648,135220.1911745528
1649,141119.14688668857
1650,121133.29379009336
1651,121596.1311067959
1652,97716.74437782822
1653,99689.22670611813
1654,151257.45752476362
1655,147605.6317830511
1656,149571.47507680068
1657,153693.26371713844
1658,155531.09967413914
1659,129524.57272941149
1660,152565.5094473176
1661,411723.31397289736
1662,388019.24761420867
1663,365486.10857686086
1664,419551.7662944867
1665,304074.3405147637
1666,330358.00475920073
1667,366503.67799706483
1668,332712.87276615936
1669,309996.16651425074
1670,339793.0578335224
1671,263200.92668966274
1672,406430.8811782556
1673,294311.97819071193
1674,246320.9523913538
1675,192778.91752119266
1676,196419.1652827908
1677,220185.2688550343
1678,440921.98126986093
1679,378937.5938696725
1680,315031.02406759403
1681,247258.3909850528
1682,318506.46461851854
1683,191218.9947622748
1684,178868.87203932565
1685,178144.39715832073
1686,171733.53281708984
1687,170868.0638918255
1688,192726.53646854358
1689,194919.7570808672
1690,196486.74660890547
1691,187359.5171181333
1692,270357.4605648249
1693,172647.71067023903
1694,185696.66644416636
1695,169637.5448366115
1696,275062.1370264876
1697,172015.53443114125
1698,343017.09722069564
1699,315336.10322496
1700,252123.9230182145
1701,273254.0044114673
1702,242891.2347913141
1703,248238.55906924696
1704,282589.49597474677
1705,240876.50790130283
1706,390774.98525203794
1707,218921.50187713868
1708,207977.888308589
1709,271525.5092654748
1710,220809.4853008219
1711,274623.9118874417
1712,253656.78214295773
1713,268411.856864472
1714,222420.8176895494
1715,209746.58447663343
1716,180597.3739272668
1717,175386.82212010006
1718,136316.4530456104
1719,209887.39043408967
1720,241284.66477070408
1721,167754.624493796
1722,127047.90650056959
1723,155991.48957121425
1724,205919.96365317362
1725,239292.06528121815
1726,184157.62993822535
1727,161521.86046832806
1728,186499.141704723
1729,167806.37062402308
1730,156668.7069476194
1731,125403.24965090487
1732,131670.88338447837
1733,121285.58795519182
1734,127155.54919316267
1735,131107.28514179323
1736,115970.45154580644
1737,308502.3851478292
1738,238641.87003340892
1739,247967.292926332
1740,204601.14280168843
1741,184534.1940738326
1742,176911.6984317389
1743,182479.734297723
1744,309196.32539567555
1745,217567.96022215174
1746,208490.2000483041
1747,225564.8619632445
1748,210530.9202304738
1749,155579.03051433704
1750,135886.81846882805
1751,239476.09914233602
1752,119627.11880178496
1753,149204.2002558011
1754,204023.71512568492
1755,173519.7358155954
1756,131287.0738834772
1757,122292.03681812831
1758,149423.61480738028
1759,171065.35170493185
1760,165487.11119827122
1761,151382.95168357677
1762,175449.02498907875
1763,187877.55368282937
1764,121539.5778874257
1765,167207.6627911891
1766,184158.11175233618
1767,207775.94861241168
1768,143184.60077811716
1769,174510.86183392032
1770,149124.06482710518
1771,133252.28425531866
1772,137864.7923871382
1773,132157.32365970817
1774,144759.77357176045
1775,139372.81515244802
1776,128409.2256739074
1777,115037.89460931758
1778,140357.11067249338
1779,123243.62444125964
1780,178727.155479317
1781,133434.31200003406
1782,93909.57993878747
1783,138903.61410179103
1784,105875.51548404511
1785,123799.87017944155
1786,151569.90974306242
1787,172177.36596930938
1788,64165.707965260066
1789,101101.68772908674
1790,93127.51679592775
1791,172337.69480989588
1792,156534.88835275394
1793,134604.80762499795
1794,147718.82356786367
1795,136431.18956396196
1796,130149.35839119613
1797,116062.90814313898
1798,124615.99276625724
1799,116217.61777422835
1800,135486.81572195768
1801,127402.24238521206
1802,140777.3475828286
1803,151762.21105671412
1804,143458.5483333959
1805,135766.8239919649
1806,118463.20421722357
1807,139016.68859684074
1808,127409.67755749362
1809,127713.80847780268
1810,144683.57138643702
1811,103916.17927358307
1812,107054.51032928393
1813,122119.73423666533
1814,103079.89871033476
1815,55656.309593545826
1816,106766.38945012385
1817,121360.80307662729
1818,145616.876127205
1819,124464.35809806225
1820,79547.43293346776
1821,118102.54821036507
1822,149494.6839310106
1823,59652.7781566326
1824,136521.937767803
1825,135295.80612292356
1826,109151.85508798544
1827,109960.94465912948
1828,137069.2126733181
1829,116070.20800379492
1830,143130.20208718767
1831,157095.1544628613
1832,85815.06297807363
1833,142901.6923146759
1834,124065.70997575579
1835,134277.86971595866
1836,124530.95857889888
1837,95898.7489597336
1838,127197.16307543604
1839,96199.33131938489
1840,152210.06471629918
1841,143556.60429383835
1842,92977.15966212573
1843,138384.9595384915
1844,143082.62050079682
1845,141795.3214883243
1846,156488.5603374647
1847,169352.18599426025
1848,56706.17808075088
1849,116082.78447688912
1850,124756.25591504293
1851,152963.68736564842
1852,125366.74714874492
1853,133010.2389389445
1854,174308.69056370953
1855,162278.69846016608
1856,225657.34466933092
1857,149874.91560082446
1858,136777.36666099238
1859,123314.34596364193
1860,151465.59195940368
1861,122964.21709347944
1862,295661.19998426194
1863,281441.91628477554
1864,281494.69576546305
1865,333413.59095069283
1866,320681.10901713604
1867,228814.10863989082
1868,284564.3965958232
1869,201179.89318098064
1870,229619.83071935247
1871,255775.18811949593
1872,178209.3754067109
1873,241332.53480016836
1874,142299.91593189654
1875,201625.24246166108
1876,197739.64679223133
1877,215375.91441535702
1878,206353.58077929032
1879,134254.6059149114
1880,135766.3984971197
1881,244943.84521293596
1882,252368.724231382
1883,192202.66969272986
1884,209439.3902339931
1885,251141.907499351
1886,289956.78441963374
1887,216123.42952421147
1888,266759.8646534104
1889,173402.135284927
1890,123269.84294797394
1891,128234.73542822988
1892,104115.36608481304
1893,135325.43108423878
1894,131600.2115781852
1895,144044.83109571456
1896,130199.71826183729
1897,121033.67487335406
1898,115679.06657308491
1899,157983.84030689846
1900,152082.58742182888
1901,170386.29200738165
1902,144919.54420525124
1903,216365.47066473795
1904,141187.62110834903
1905,191041.36616171204
1906,142232.79725074107
1907,206671.25078318303
1908,109203.05954407077
1909,134363.83165457606
1910,123560.18068996105
1911,209214.03587063798
1912,300165.5902105709
1913,134432.40208268128
1914,70500.06311430714
1915,284635.18410016265
1916,65952.87016411626
1917,254803.41612333027
1918,140620.54593554963
1919,173686.681590808
1920,159433.65163047408
1921,360416.17055631377
1922,309207.5400285952
1923,221470.45564041566
1924,224011.20574515825
1925,210155.66613571372
1926,357900.6911345255
1927,136410.08907603417
1928,168242.23696083608
1929,128026.97204318803
1930,130977.59327184287
1931,140402.31413698866
1932,138856.04191751
1933,184987.82495585125
1934,180178.53432984243
1935,176301.7056334158
1936,193246.4946035132
1937,183159.596730887
1938,174725.9304186447
1939,250624.87954412136
1940,190160.85479783942
1941,171918.3636707765
1942,188642.50911029422
1943,209363.97903057572
1944,342561.3238663049
1945,375839.4360264713
1946,140262.35864022755
1947,291832.0935605055
1948,172563.44086734846
1949,248375.6649190385
1950,188677.4024930211
1951,254794.95436882807
1952,222457.0806797454
1953,173628.72242769002
1954,196166.26067591086
1955,138400.97090789446
1956,285083.16608020524
1957,163112.36146479342
1958,300889.74035564956
1959,145979.93076710225
1960,116161.95453695203
1961,123052.61917059256
1962,96586.4847883679
1963,101373.61474057753
1964,112367.81483216753
1965,146501.2090603654
1966,149198.58256982968
1967,294941.0446013953
1968,392221.5425674929
1969,378208.6553246124
1970,419608.4495265007
1971,413955.81267653004
1972,369773.6595984141
1973,270978.52057503967
1974,331648.96637777844
1975,435069.7993842893
1976,279914.5433127688
1977,356661.7434081698
1978,347339.5384750425
1979,319987.7717219133
1980,205350.48318874618
1981,329307.38961487846
1982,225324.93881628165
1983,210151.57859157448
1984,175020.02166292045
1985,223653.00369537566
1986,211564.17899168207
1987,185639.83342880377
1988,177547.6193481565
1989,193659.52672169122
1990,215095.98266071812
1991,228981.3257734279
1992,217365.31726814274
1993,175162.3793483515
1994,236649.39573905617
1995,185026.57770219055
1996,253052.83657200524
1997,319179.60991092864
1998,322640.58086133865
1999,266124.96123531583
2000,305053.866139859
2001,286614.3453560157
2002,249175.5465360184
2003,257327.26585456013
2004,283966.587411922
2005,231625.23162331313
2006,220737.67227316415
2007,251220.74203271765
2008,213074.96936015203
2009,197513.21427572166
2010,194224.7032161403
2011,141765.76509573724
2012,179394.28178840032
2013,183358.9751170381
2014,190274.86556832163
2015,209611.44781739623
2016,193778.12261133865
2017,199262.9676009283
2018,124657.79992978046
2019,133713.8499020524
2020,108572.1790993392
2021,112841.8541953982
2022,183667.3920695395
2023,150092.454822047
2024,244952.08120505267
2025,330330.443414349
2026,180788.60435184708
2027,156603.28555490353
2028,158545.03433245397
2029,171798.4390420517
2030,267725.5236035645
2031,232395.89877857434
2032,251750.3077416229
2033,259491.8064667616
2034,178703.54073057545
2035,216873.4174011378
2036,204803.65233978422
2037,208925.4024457561
2038,312137.26378349855
2039,226589.57633375956
2040,301751.1306526309
2041,285676.1477876684
2042,208163.17184713364
2043,172372.46230424798
2044,174531.4617661293
2045,216304.8940920669
2046,144728.38276436206
2047,147025.69942278866
2048,137010.27257542874
2049,143261.043385708
2050,178105.17450358282
2051,108166.65506213008
2052,128656.40148127057
2053,143874.601351044
2054,90335.11049289044
2055,162507.3963534238
2056,140939.7401105632
2057,121620.02960414847
2058,213236.00326617458
2059,136711.9646867237
2060,165023.3909867303
2061,175031.5001300493
2062,133490.39665168698
2063,120286.99097036436
2064,142332.23209315038
2065,118162.05196710925
2066,176451.0888391712
2067,121177.54343305391
2068,147887.6615987608
2069,86831.28082226371
2070,114816.45657004224
2071,96685.12087546564
2072,139355.7226870692
2073,138050.62495093545
2074,178812.66854798835
2075,147153.21175752065
2076,123777.55297679159
2077,152823.74367210627
2078,127896.06553331399
2079,138282.239341007
2080,119255.7495036507
2081,126867.84841835049
2082,125795.54995465526
2083,148388.1447293621
2084,112837.76058954498
2085,120887.85410973863
2086,107389.42899010087
2087,122170.25181092652
2088,102030.13489301402
2089,86555.34588874514
2090,128902.7761326005
2091,114472.30588330701
2092,124326.29020353525
2093,117704.45665590266
2094,127944.94298091195
2095,147065.55301356298
2096,87267.91877580575
2097,100694.10989174742
2098,148687.0181773338
2099,54517.44773518643
2100,87432.48401152696
2101,116477.1257413433
2102,131853.4186372052
2103,106503.64152779465
2104,143125.9890762936
2105,131425.21330474422
2106,68691.85757063684
2107,206424.75944007566
2108,117429.15439003981
2109,113481.29543710762
2110,129849.16785610345
2111,142485.10634212557
2112,142528.0760757418
2113,114931.69775982575
2114,117315.37468637268
2115,157237.65985985374
2116,116660.98233431541
2117,142819.3226818372
2118,126395.3732121763
2119,112493.64775683728
2120,110759.73770655945
2121,110465.20773151741
2122,108892.65653975068
2123,83081.38352337264
2124,170419.43025693204
2125,133029.12767087118
2126,157181.77589440794
2127,159491.70591643982
2128,129554.62733468406
2129,96831.0795063498
2130,135420.25188662476
2131,146824.891557687
2132,116757.37241502445
2133,122306.08652380588
2134,123661.45417928728
2135,97628.37087623736
2136,79678.75034076639
2137,111854.8487536216
2138,139548.85176238645
2139,150109.90588344217
2140,136828.1372548996
2141,152308.81037068937
2142,131039.99630895242
2143,145828.36606289528
2144,126898.63884135366
2145,138551.2756029304
2146,169169.35952466706
2147,155426.37555316454
2148,136229.2979873986
2149,142697.47411758138
2150,234586.45516690004
2151,126016.22576085408
2152,169650.91893302219
2153,159973.0945943757
2154,106486.65066564923
2155,138671.8256213931
2156,235282.0894722248
2157,234444.43400700035
2158,240403.70105261236
2159,221267.54119714512
2160,185047.45081731913
2161,239030.32996536006
2162,374357.91751922836
2163,336640.61894441687
2164,255088.32874785387
2165,198839.69800942452
2166,151312.2738733043
2167,219269.179858532
2168,199115.25971353054
2169,199832.96536053778
2170,218660.4577260281
2171,154482.99736012338
2172,138413.3322072799
2173,168138.43601995995
2174,232487.3466768612
2175,303767.61129192467
2176,312214.15444447176
2177,243937.71075819328
2178,218489.0993274041
2179,142427.12775829528
2180,196566.53976334675
2181,197986.31403615445
2182,226460.67237231013
2183,194046.95542799722
2184,125146.58749225961
2185,128037.87180867058
2186,142094.8489776053
2187,148255.76568811474
2188,153515.09118155026
2189,227704.79551284414
2190,84796.73056825055
2191,88252.59266365178
2192,91532.02361153599
2193,105579.0394085737
2194,104216.93426479315
2195,111783.22754721712
2196,108476.15666365897
2197,119076.95824297951
2198,162330.93950255236
2199,182513.26466840983
2200,138990.46931848364
2201,142013.20754687797
2202,205993.18967425908
2203,148169.73189090609
2204,172224.6111819853
2205,119350.16294139027
2206,131306.64793366025
2207,213012.22745830545
2208,249662.75775011993
2209,223942.47402121255
2210,118644.07830553009
2211,118820.68161580949
2212,114627.90521935168
2213,105660.45809756516
2214,133871.66098373185
2215,104731.04798552599
2216,141891.73346542535
2217,63747.03403296554
2218,93997.37547006266
2219,81260.22261453123
2220,82544.15749459043
2221,284901.5275775497
2222,255948.2562923477
2223,285412.5359270125
2224,216017.9845901345
2225,131726.55933355945
2226,179456.80146565635
2227,203119.29748581222
2228,268250.649226522
2229,243186.69745978963
2230,154852.01629375006
2231,212332.93937582397
2232,177362.4904068416
2233,180792.00756775544
2234,243890.27175625364
2235,211863.1669005309
2236,253749.15032692123
2237,315364.16662123904
2238,199816.41614230018
2239,111019.38461182089
2240,157377.55407514377
2241,148443.58413640707
2242,127455.4674454586
2243,133024.28759460078
2244,100006.53410979682
2245,103463.69461334182
2246,146879.50267291165
2247,107406.0020581142
2248,125616.14555332572
2249,122410.27702214723
2250,132843.85067167025
2251,107279.31097904424
2252,179593.05644254966
2253,156513.57593329597
2254,177859.66307895104
2255,188342.49568217358
2256,180327.94932455514
2257,201044.61501533104
2258,168798.71914256443
2259,175069.24118229726
2260,150955.74202284304
2261,196630.07180505182
2262,210652.83630015
2263,362254.9418171468
2264,425879.80152208864
2265,159767.94486347225
2266,286859.36655453464
2267,338000.53706419835
2268,392159.88248130056
2269,156932.33959510416
2270,196266.14050603492
2271,225798.26696419477
2272,204215.89361133781
2273,161618.03541861588
2274,179334.2112065675
2275,159599.03824802313
2276,188260.92575136878
2277,184631.94661609913
2278,149519.2506239168
2279,127503.26146528244
2280,117864.98798019774
2281,163174.91801592216
2282,176517.23784632733
2283,102722.82975961891
2284,114603.2620805091
2285,147457.13825653202
2286,126275.58697948525
2287,362706.97151485004
2288,274716.75318728446
2289,362660.44127882156
2290,432941.1443100468
2291,319416.01216791925
2292,410476.5441578565
2293,446665.9259935942
2294,382045.74115839985
2295,442488.38554453506
2296,282721.6287381611
2297,338856.1744438942
2298,336860.11415500526
2299,341265.25437745475
2300,337263.6260857861
2301,305192.1877378603
2302,251907.47738845574
2303,247386.89480860688
2304,255628.0567879974
2305,194236.88120367294
2306,190410.15090756782
2307,195269.67930168618
2308,226605.537125424
2309,278646.5075544908
2310,217830.10863294898
2311,200246.46810652784
2312,173716.85818719436
2313,175879.4433829939
2314,178139.81103574453
2315,180607.87326662918
2316,197244.28804818378
2317,186273.5192958599
2318,180572.1992574335
2319,183929.4695863355
2320,185400.1919519594
2321,245029.17989769342
2322,180337.6432087941
2323,194758.24965794146
2324,177224.06139678322
2325,219423.8065495243
2326,175723.79428828222
2327,210076.96766076912
2328,224370.736395859
2329,191566.17310177075
2330,179215.64257036633
2331,345806.90660313383
2332,378584.1135266848
2333,316874.40161336726
2334,261719.56971810502
2335,276425.1003655138
2336,304746.0321621799
2337,205927.078478615
2338,273596.2229828449
2339,227542.1518715747
2340,379413.28668949264
2341,219048.47520536685
2342,242037.59764513612
2343,230781.75401692212
2344,225886.49683437255
2345,241919.06213001584
2346,213909.1608742536
2347,202528.62421802655
2348,238221.66971967352
2349,175328.8727871726
2350,299443.0965703014
2351,256354.52109341027
2352,243072.3272726623
2353,231168.82665197048
2354,134499.83492246637
2355,154629.379407655
2356,151844.41447605615
2357,193765.5058646694
2358,198850.5138047403
2359,132463.0530393427
2360,117884.16019243756
2361,143352.7076077352
2362,261576.6467177068
2363,143339.94483039185
2364,157024.3327379207
2365,214034.88266084643
2366,195672.34730364755
2367,229152.0522702747
2368,214116.6143328501
2369,222770.2962714259
2370,172781.4806623654
2371,172300.02105724937
2372,189722.4362273862
2373,276866.0981136483
2374,299575.65808366943
2375,244520.6433421014
2376,280782.8987038953
2377,320576.9633857222
2378,147261.35253125004
2379,200343.67911185932
2380,147916.95019187898
2381,168457.76090206672
2382,198429.92211628615
2383,208642.37410737236
2384,244141.84056613842
2385,157969.71549148727
2386,136603.06279347517
2387,136190.96477832308
2388,105151.2094571794
2389,128581.70975106506
2390,151990.1160244009
2391,141551.40960482706
2392,117263.40767579924
2393,169732.99751715423
2394,147127.05020691754
2395,197136.92118500257
2396,142666.4575787436
2397,208515.6505605211
2398,128452.83245726854
2399,64647.77602149945
2400,63251.79935896392
2401,116899.95546155925
2402,137269.0206988557
2403,140954.05452950188
2404,157877.70124654702
2405,156954.62789680468
2406,139989.65669601713
2407,130236.82259742956
2408,141992.8511747907
2409,127709.58545419607
2410,170655.9647679524
2411,120996.55764704934
2412,158596.91085301517
2413,135779.43546233713
2414,148063.89191270215
2415,137865.57693960995
2416,130366.0053138944
2417,134480.74940416444
2418,131297.30873600466
2419,128561.29913818715
2420,127002.50449818456
2421,153069.98638618298
2422,115631.21351692292
2423,128113.73495253346
2424,153052.32197728025
2425,171615.70392581815
2426,130988.34674918914
2427,138809.97702115795
2428,177816.38777726924
2429,116368.17428408189
2430,133265.28534790373
2431,113665.83018045574
2432,141937.98212228992
2433,144167.26007114968
2434,140561.48041434688
2435,151869.73817476816
2436,108672.55091047817
2437,111529.95407409208
2438,125284.4124364915
2439,107466.16439348127
2440,125544.41875497032
2441,98310.79982772071
2442,102984.96159676855
2443,126386.9414759387
2444,132403.2009985995
2445,91127.05109877887
2446,138486.991798107
2447,193634.94079588173
2448,139776.19857379494
2449,115216.0091564512
2450,152230.22094399921
2451,125541.87267823647
2452,203664.11226761912
2453,97429.20195092681
2454,123240.78995194125
2455,109661.7060999675
2456,131421.09275305338
2457,126314.68854830421
2458,126425.30885041849
2459,111916.97773678908
2460,141704.59358808602
2461,123795.14707829503
2462,134055.96667748506
2463,127981.8555321903
2464,158946.12761361615
2465,131968.58148146668
2466,121104.86649221776
2467,138750.11891673462
2468,91187.3773551978
2469,83965.8696488951
2470,180531.39316545604
2471,197771.3739201287
2472,160257.51694335358
2473,122024.94715005666
2474,83143.78359367824
2475,215335.85950508254
2476,111485.49948780921
2477,131343.809020338
2478,159113.17425190352
2479,110996.82578014606
2480,150674.89451899825
2481,125886.63220742263
2482,128453.0104647614
2483,116736.16089363612
2484,123611.20656038835
2485,126043.72668080301
2486,152955.32977988143
2487,173022.4752207581
2488,162823.9134878554
2489,160201.1988434134
2490,148102.42135630734
2491,94685.57322988573
2492,195951.29215555248
2493,155610.68299727753
2494,154769.61459977878
2495,94067.65672157644
2496,234445.74452218527
2497,151281.00501573266
2498,113631.6524687277
2499,88815.00961325687
2500,128898.44853163349
2501,138530.8477119818
2502,140202.5888688317
2503,98835.18765641256
2504,174612.53031210037
2505,227373.9901458131
2506,249945.77027355536
2507,279433.2841706303
2508,249381.49829748218
2509,221630.64691375726
2510,221807.5175570023
2511,181059.87126284998
2512,210706.27677887425
2513,223928.804273773
2514,243738.83168136867
2515,148200.144897041
2516,171389.86975243757
2517,140754.99239332293
2518,149224.87484617057
2519,235229.67079716118
2520,216309.23507164879
2521,191750.44233245763
2522,225412.83065808573
2523,124644.36354219964
2524,141809.37090123832
2525,146218.9348163941
2526,141280.46010800387
2527,120013.49619558308
2528,129755.82167449532
2529,137612.57464534676
2530,121728.33194383653
2531,249957.9166468178
2532,227734.6504213855
2533,197296.57401180398
2534,246492.548520071
2535,296018.49691015715
2536,236600.84049418158
2537,240288.56203561317
2538,187935.3031134758
2539,189985.20533961154
2540,178903.51381912283
2541,184765.85108198106
2542,166908.49056338487
2543,124668.58853794262
2544,119897.96800549558
2545,137054.1065631326
2546,129398.83246177067
2547,132610.31859578344
2548,149054.65911376628
2549,157552.67124336393
2550,386198.22865789826
2551,132658.95632997912
2552,126120.92024552762
2553,82626.2132398429
2554,104356.33847531411
2555,115764.83389528813
2556,105071.96841720313
2557,109851.70517331177
2558,140285.1183720684
2559,145493.1906781618
2560,139071.39040541774
2561,147255.12020812766
2562,139290.44375423604
2563,145068.9380864292
2564,192204.06054608687
2565,137373.59671022126
2566,154895.55281938528
2567,138107.52968362372
2568,191267.83210444826
2569,209047.24793380534
2570,115920.79152073762
2571,178878.74659399354
2572,157358.62157895276
2573,223154.26196848176
2574,281005.90222321
2575,126957.02255976353
2576,124329.60735352531
2577,154749.3665829958
2578,90397.82578416343
2579,67484.63957745871
2580,115847.79844532632
2581,122653.70703152461
2582,123144.75323573987
2583,267296.69915821607
2584,175627.86496939
2585,188256.54593049106
2586,222895.31670231363
2587,203671.76040069744
2588,148449.25331455484
2589,151940.89216310222
2590,214495.17755656719
2591,220716.76041270868
2592,213395.57199367095
2593,243260.26015546176
2594,180998.25640714075
2595,202909.8639959018
2596,296107.3871212837
2597,186822.82194496586
2598,283265.5777393077
2599,313823.234896616
2600,141000.48443762495
2601,144009.57143001098
2602,87119.5487962901
2603,94556.19907979903
2604,91097.15758378008
2605,84596.88976025407
2606,151773.77770718912
2607,190722.8404132915
2608,190458.48508383427
2609,170152.41058009717
2610,115668.84001577794
2611,126665.93874205057
2612,157745.25497522607
2613,129168.44147575952
2614,126167.65051729308
2615,156172.73907111777
2616,143861.58091147727
2617,181131.26285420026
2618,195239.3203215513
2619,206805.83738727
2620,186366.7206127941
2621,176720.7868371634
2622,179013.7459147923
2623,241540.62442899845
2624,295361.7335245086
2625,291446.63925650495
2626,168638.28892773425
2627,169406.32074698343
2628,447990.8878521123
2629,453457.26666567376
2630,368231.9872582234
2631,446385.2218511011
2632,399465.2677008525
2633,299364.16636642365
2634,403605.3084067417
2635,157630.31970654023
2636,182572.4400652334
2637,176116.27501542805
2638,258731.077482689
2639,185484.49883300177
2640,151143.09620073612
2641,106415.67760173982
2642,179041.69115565458
2643,105993.39287562732
2644,125816.02121702975
2645,103090.84162888094
2646,95266.01545339507
2647,100627.87611537824
2648,142428.70324054966
2649,149521.38417313262
2650,140399.33150657977
2651,148019.01101796233
2652,413896.1297122523
2653,247402.29046182992
2654,257140.03074067718
2655,375906.36429336574
2656,332829.52170819393
2657,341658.3162049232
2658,296147.36135234876
2659,303908.4168676511
2660,353904.4004920709
2661,352787.424893002
2662,354619.2424684119
2663,296184.61787503347
2664,273278.7841155741
2665,322287.9897114525
2666,281817.3376029561
2667,174910.7675898616
2668,183458.91626360844
2669,180017.64762875432
2670,277105.64275892754
2671,188102.3187209576
2672,195715.78160000604
2673,205023.54252836943
2674,199489.6055520772
2675,176740.2290155599
2676,193878.90709790256
2677,194325.7722396036
2678,248938.4009893638
2679,285136.3547854312
2680,291997.3379676036
2681,383416.29354483605
2682,308943.50993783516
2683,453428.1294891474
2684,319736.00653758156
2685,332917.7276890406
2686,255547.9996851141
2687,305137.0497261059
2688,225559.3793105215
2689,208343.78822678153
2690,416760.1794696429
2691,189987.242768932
2692,137523.73744554678
2693,202762.32020425439
2694,135151.4321311082
2695,193606.68324839562
2696,187291.88648882604
2697,183254.64323522281
2698,189195.74722879584
2699,176155.99970904976
2700,159597.1553495299
2701,155522.6911838143
2702,117377.96337640776
2703,127822.65852785474
2704,141870.28101371205
2705,121267.86792644946
2706,115530.14678298758
2707,126712.80677408964
2708,136166.26763591927
2709,107210.10372271348
2710,131704.69946648617
2711,266510.02246304293
2712,361061.60029515973
2713,175849.89593522795
2714,152026.3996102209
2715,173571.01714020397
2716,156271.9519672881
2717,195486.15945684534
2718,229742.81570886142
2719,154175.40481296324
2720,172171.18099516182
2721,134440.0152318966
2722,157906.48444753225
2723,144705.97669888914
2724,128479.28532545641
2725,131348.09822684238
2726,142016.91107276198
2727,170571.85435881844
2728,181408.73666608494
2729,152554.15552513473
2730,146743.81175249207
2731,128921.44085096975
2732,130993.04728215224
2733,157390.96572454172
2734,142393.21705083412
2735,136787.26518738412
2736,143251.21930653992
2737,120997.06430608635
2738,139237.04239809766
2739,158600.3718791643
2740,135202.03857695186
2741,149967.27469857904
2742,156377.34909199402
2743,152904.3196706366
2744,152245.1547480265
2745,141039.1881031584
2746,136639.72240372509
2747,161565.8035460177
2748,126594.98437245839
2749,130279.47213990652
2750,133294.54517649565
2751,133355.8729364325
2752,226991.17391537956
2753,149354.73274505106
2754,192599.91418661183
2755,135827.699324304
2756,95460.07936294406
2757,72292.71808602488
2758,92586.68379427196
2759,163171.23199720736
2760,138478.36343662735
2761,141847.3175381339
2762,143817.1783519851
2763,183581.6316933881
2764,162162.43156754205
2765,271030.04843354475
2766,132536.3856130764
2767,90998.24072708363
2768,132106.30724012182
2769,131289.21238145253
2770,144104.24870090035
2771,113362.43466850504
2772,116073.51199325707
2773,162428.6922878903
2774,138295.21519428582
2775,116444.95075932457
2776,147753.27815087477
2777,149986.34335914336
2778,110891.78184224873
2779,123371.29699561004
2780,99210.19438270289
2781,101670.41658274773
2782,99980.50595841027
2783,103656.52173864888
2784,125538.502496536
2785,138754.85027288055
2786,75807.54349215674
2787,124759.38960709836
2788,85338.18166736605
2789,177254.5156000978
2790,94574.82610225449
2791,114867.99618088007
2792,71522.07315115818
2793,149016.2849497112
2794,103238.97268086196
2795,118452.80733778764
2796,104677.57811147507
2797,188015.37407032138
2798,117903.33624403652
2799,114375.58528821271
2800,73649.48723009937
2801,109621.38531087783
2802,135188.51385631016
2803,160396.745087984
2804,139437.33132812235
2805,100417.36855213468
2806,89534.31500144463
2807,159949.4567244871
2808,149248.4583688966
2809,131940.5214388566
2810,132649.06842881854
2811,162510.0073168281
2812,153539.90444676412
2813,153515.88637288523
2814,161046.83641912424
2815,103630.06814307277
2816,233232.17196296208
2817,149267.56811208875
2818,133784.74692853412
2819,173413.58750764868
2820,144076.32895746105
2821,105939.16413879814
2822,190241.73725417897
2823,264925.4350507396
2824,172700.42651338922
2825,146768.06472290726
2826,130991.8797844663
2827,138706.24990761792
2828,210864.26275606896
2829,197454.12679582162
2830,231324.95387680203
2831,184449.86914091278
2832,233251.02798196027
2833,304463.67214526306
2834,220377.57408971543
2835,226524.2128744395
2836,193718.27183324046
2837,172306.72168107115
2838,149336.38195287462
2839,179745.5285088707
2840,201517.25055631343
2841,204787.48759750844
2842,229034.2313430021
2843,150196.77969791103
2844,164144.29954169047
2845,123414.24686977
2846,211148.21753248913
2847,203247.9280382509
2848,217571.9832978292
2849,202722.6599973569
2850,284975.53287176957
2851,220129.51252096775
2852,237633.5206119818
2853,237195.6661209407
2854,141726.55888757657
2855,201318.91279573282
2856,202862.59641706393
2857,191098.9550686951
2858,203453.64596343788
2859,125696.51355158181
2860,132014.52937365707
2861,129049.07446547564
2862,187024.77227389187
2863,124846.26166356516
2864,239918.50002923465
2865,134716.86984526698
2866,142904.13987953807
2867,101780.54250277478
2868,105643.55999385449
2869,105925.20330633479
2870,141618.86181695605
2871,94608.11757592189
2872,55579.629226569945
2873,103941.22675308584
2874,145559.4371295019
2875,112711.30736473289
2876,161516.0547465402
2877,143971.9480070405
2878,165926.61316214787
2879,143236.12186139612
2880,106323.07704853071
2881,145140.37205976725
2882,172976.6862813176
2883,195379.32195034844
2884,196383.3392826061
2885,187904.37867429212
2886,210901.81873644143
2887,93506.9869997496
2888,135087.4400169364
2889,61617.06632780836
2890,85524.77916992223
2891,134914.38133443348
2892,57204.25030077963
2893,94567.77299742564
2894,68880.72967476638
2895,302131.1935112046
2896,265999.4220779953
2897,212696.05870871077
2898,151669.06926487992
2899,216412.37597297743
2900,160119.29689503158
2901,202302.1965118616
2902,184717.3349718645
2903,325713.24110432866
2904,346375.61369860277
2905,86893.44324928385
2906,198501.95296548138
2907,115507.3865109442
2908,130645.48882875884
2909,154003.19159542528
2910,83507.06270987321
2911,86040.79699231437
2912,154252.4778088015
2913,87677.96784329393
2914,84908.4882128451
2915,88769.91623891366
2916,87539.37802987892
2917,167210.2590642293
2918,118074.45449763862
2919,226751.2871138046
