Id,SalePrice
1461,114913.9605763773
1462,151522.6719123083
1463,174406.1691219072
1464,188430.04592022687
1465,191243.45519545607
1466,180544.88324199733
1467,170508.20806487987
1468,174317.72625439076
1469,181168.19652833085
1470,130044.87141683734
1471,198385.59559996665
1472,94320.78070747343
1473,101519.71643969868
1474,160237.2600723721
1475,111209.83532457557
1476,431552.3633184263
1477,247634.47622446157
1478,313895.51130172756
1479,272795.2011792793
1480,418437.24266649643
1481,319280.84509288485
1482,204975.60548084966
1483,182205.8193317542
1484,171190.5600957671
1485,177489.43078643343
1486,195465.13604966705
1487,320199.2433325608
1488,191866.00290591843
1489,205695.8477928298
1490,203531.58210730983
1491,189880.17872316873
1492,86063.60148788399
1493,183051.225676464
1494,304196.7544823268
1495,302448.6855869399
1496,222150.41504462756
1497,187244.91764703806
1498,161164.6322845669
1499,153786.22081090888
1500,167570.59909929577
1501,173662.27207542746
1502,170812.01265364327
1503,288718.06316944404
1504,230784.4764433466
1505,212469.35040416342
1506,178720.04230468962
1507,234408.64793456666
1508,190000.58704511216
1509,158837.23815867899
1510,149159.7347017724
1511,146607.3234300891
1512,163583.46339053853
1513,147361.70592167348
1514,139791.35408063803
1515,199618.7387281915
1516,161724.12896024535
1517,149425.6315141048
1518,133551.30636406096
1519,218846.54061971485
1520,138282.64094294686
1521,141061.13896421515
1522,162641.14722694844
1523,117806.29567478718
1524,120975.84692970774
1525,122321.6950399277
1526,125543.93303211973
1527,110113.88049083111
1528,130334.15678193547
1529,143083.25314891254
1530,171436.4279714043
1531,136196.7223919943
1532,101959.03792865136
1533,135133.59207226464
1534,111479.04355804718
1535,142663.6394290631
1536,114918.88174809469
1537,81933.2194672554
1538,150341.19930584007
1539,196346.81354148823
1540,113582.62397591055
1541,135672.8399766042
1542,135411.3655343024
1543,169179.5416458681
1544,74874.44052878486
1545,106197.42095019955
1546,130847.64743300634
1547,134032.59252948442
1548,123617.67665006986
1549,115348.2777914729
1550,141746.916757253
1551,113670.61393379488
1552,140602.62778706526
1553,129009.7658367376
1554,126226.81716596632
1555,160483.8409683687
1556,102908.5206116011
1557,87368.70506311965
1558,98366.98409009943
1559,110475.06913605041
1560,146708.6388751209
1561,111581.47802596804
1562,130737.2461304368
1563,132140.37891116887
1564,158561.7737000108
1565,149710.96903032257
1566,234862.81864230084
1567,83468.30278262675
1568,221222.8799304068
1569,137642.60371075405
1570,138719.2940343771
1571,121897.16191069243
1572,136754.94601462258
1573,224775.0780072042
1574,113815.63781987886
1575,222129.7162558341
1576,223101.96273894244
1577,200285.81951201402
1578,142864.6297566178
1579,138011.78693112597
1580,185314.18085222482
1581,145608.24019800514
1582,131503.12613209916
1583,312281.3030270363
1584,229497.38785281472
1585,140881.85523620324
1586,75523.21762546025
1587,106747.37501056366
1588,147922.92418620508
1589,88024.61298988509
1590,131983.25872607453
1591,104120.58632605938
1592,113821.51868818932
1593,125729.0434549754
1594,128081.90794716575
1595,116871.39706673226
1596,238837.76607934778
1597,157862.4804456912
1598,195096.46956657013
1599,190162.5876405476
1600,183351.98707477178
1601,88339.59721631616
1602,110587.58368311333
1603,78155.49112003729
1604,277326.3305210593
1605,268759.22415678075
1606,170524.88761281152
1607,154109.36052833538
1608,220944.37289408877
1609,193864.5292195251
1610,166565.2381520753
1611,150124.66947408643
1612,157143.88018810868
1613,161810.99079148436
1614,110506.19972144935
1615,83378.17444602691
1616,82501.02541803128
1617,84767.00574905584
1618,125885.01188158421
1619,137357.24551021733
1620,148772.4503484393
1621,142847.09832379804
1622,143659.02190009013
1623,272074.98705092294
1624,211014.29265353613
1625,121883.8235030253
1626,170162.7978543691
1627,183572.0105923568
1628,275180.59315869556
1629,179222.11613806372
1630,304978.3539400768
1631,198251.0964094445
1632,236903.17503150145
1633,175728.89197077835
1634,193049.55684604525
1635,182034.92677937445
1636,169418.7096711515
1637,177111.67359075605
1638,197262.43565278486
1639,181808.4575507068
1640,226352.412482893
1641,178675.2389834507
1642,235515.58028396624
1643,228759.55501713057
1644,229639.86051372602
1645,183977.4071863819
1646,161270.8344425965
1647,164826.5148898297
1648,139389.9424991502
1649,142752.34857257898
1650,121602.31112042253
1651,123659.90508971729
1652,94861.55678792016
1653,99956.03851004755
1654,155478.9208317254
1655,148028.10860370548
1656,148869.24654580548
1657,153937.2090815239
1658,165997.14415880656
1659,121064.70530564638
1660,155118.6860012616
1661,397211.7772103845
1662,397796.57172954956
1663,340035.786951338
1664,430224.3298125097
1665,316247.4857482597
1666,306277.9207272041
1667,364548.98925194755
1668,345801.08563431486
1669,315047.13625793473
1670,329072.8581457779
1671,239820.6066733503
1672,389758.10103821446
1673,294346.8437881819
1674,257093.42966131214
1675,194533.5606753485
1676,197265.87074198824
1677,215945.76773639672
1678,423734.2521432519
1679,345261.06259606796
1680,319743.5392875753
1681,268921.25507431134
1682,302107.85529733426
1683,189411.65037392167
1684,172959.64681492126
1685,176479.40477686856
1686,162681.25748255587
1687,171623.9840997403
1688,188864.72105882666
1689,187854.85076492492
1690,185632.22905358177
1691,181334.1003029816
1692,283115.05106602923
1693,173406.21484438403
1694,183930.51441103048
1695,172052.93670376478
1696,261633.5892033619
1697,169972.26666605312
1698,333644.0782475582
1699,322666.84520199057
1700,255353.0253116231
1701,266258.61001683306
1702,244354.29872429933
1703,240743.8575566928
1704,273947.77138146013
1705,245906.88401883183
1706,411556.86954691494
1707,230877.6770459282
1708,207768.56631695665
1709,277675.49948514043
1710,221107.3839063551
1711,278488.99680835765
1712,244092.29663267193
1713,261353.12276669577
1714,215366.97815738185
1715,209743.24283156876
1716,171418.3176279613
1717,166748.35421496414
1718,118754.15857675757
1719,213586.54380552968
1720,236724.18601725914
1721,162343.8489539881
1722,112560.43389902615
1723,156928.4519711268
1724,202423.75365206806
1725,228567.02786072984
1726,190086.33191246918
1727,173704.35904868614
1728,186853.50509596884
1729,170231.12788023608
1730,156620.16374007825
1731,125316.60503308203
1732,135558.8835403601
1733,121446.55852366803
1734,127589.24251680526
1735,137433.16273663813
1736,122195.48737503208
1737,323223.54798572
1738,226078.4991335948
1739,250539.2600005151
1740,203700.28302189632
1741,187620.4127749885
1742,171393.1513396486
1743,176300.9696778487
1744,303963.84746188
1745,213764.601037286
1746,249526.80544111558
1747,214076.28814444828
1748,208461.40753458737
1749,166558.16658687938
1750,139788.37097937946
1751,213443.03506780503
1752,116330.10920118619
1753,137628.0949096793
1754,186572.43394917552
1755,169056.25632796314
1756,114047.71408499965
1757,121224.68388635536
1758,154717.4397800616
1759,155552.4148103472
1760,164222.56914081983
1761,146769.57969601153
1762,176320.54357755
1763,177818.70565784097
1764,124012.98713684744
1765,169993.1890197088
1766,169418.64092274912
1767,194130.983372827
1768,142460.98525939946
1769,164489.69837326184
1770,148790.97821403225
1771,135997.80058603425
1772,138008.8841130509
1773,143476.24194375798
1774,127760.93027114432
1775,137323.7666163285
1776,130834.92040398228
1777,123724.8247403007
1778,136799.47669511268
1779,129053.37185059172
1780,169472.4640982254
1781,130673.81654174959
1782,106242.01148588529
1783,137894.970879334
1784,110254.37690200788
1785,114974.88318842305
1786,144445.37435490396
1787,165335.63637992353
1788,75861.79172885194
1789,93616.70815797138
1790,104610.61258670666
1791,171193.96423590314
1792,150837.4532433577
1793,120764.50721563054
1794,133202.56773344855
1795,137336.91995671752
1796,134531.09271031033
1797,115992.60693228607
1798,125626.31700913886
1799,122057.2321075076
1800,135159.13950510722
1801,126547.41386887089
1802,140346.54473741358
1803,153944.16205273182
1804,144890.14711094706
1805,139541.31290576325
1806,116156.76302662745
1807,128421.73089881217
1808,119357.31092118513
1809,116538.1790922055
1810,142948.06550109907
1811,100845.05028536156
1812,98213.48323268184
1813,120098.69004988114
1814,104004.89479967754
1815,62758.572435688235
1816,109922.41382165962
1817,117002.37855002405
1818,124310.57516885456
1819,120319.02141914832
1820,98608.47377639226
1821,106908.81845579784
1822,139444.34272622838
1823,59312.66218838783
1824,123853.13497628244
1825,137154.48324623867
1826,107848.98151842567
1827,105395.95116814444
1828,127264.2886363948
1829,111948.22515985483
1830,133749.79847929263
1831,140152.19014580274
1832,112722.36681305163
1833,138114.8694347153
1834,119163.03832010519
1835,124599.56833341738
1836,121976.02016575912
1837,103044.82302126914
1838,126379.25707479335
1839,99749.05940078213
1840,178245.56337223636
1841,144313.14180653836
1842,106579.43388066665
1843,137931.41952544815
1844,146179.73467693035
1845,138307.91933610762
1846,153332.86670474443
1847,154311.67819351118
1848,68156.76084539559
1849,120170.71202391709
1850,130020.99849211858
1851,145835.4944159826
1852,121876.69721364885
1853,152066.3931238598
1854,176978.9519388104
1855,172411.45455778818
1856,226073.28248224978
1857,180142.7353847202
1858,141414.3131536563
1859,118797.50067269556
1860,153202.3621633695
1861,118903.84196742933
1862,227657.62317732454
1863,224049.0788501014
1864,224049.0788501014
1865,380784.02420985233
1866,336287.3092764903
1867,238694.6401577847
1868,288078.3046035226
1869,195717.0042362044
1870,240945.8627677182
1871,254418.60421471426
1872,171933.5234380825
1873,235008.3705561411
1874,131362.39595532056
1875,199759.03542714115
1876,196656.34485275156
1877,212441.8993143769
1878,209223.51053129643
1879,128535.50223838584
1880,139137.68640485383
1881,235061.89182133498
1882,255990.21321957937
1883,192183.48169283
1884,204800.08072451726
1885,250333.50896336828
1886,286215.2204240725
1887,204861.7174963092
1888,272049.731066963
1889,172249.25103844446
1890,124522.69164215763
1891,143109.1810232824
1892,112633.0162778556
1893,132135.89089340615
1894,122468.56915711437
1895,140923.28092711538
1896,126933.31606335164
1897,125622.75339570333
1898,124906.8488671669
1899,151471.10081371386
1900,139253.63807327268
1901,163842.39220506427
1902,138273.32999405186
1903,201684.89875439508
1904,143035.45278593135
1905,193794.38404917574
1906,131512.1482660357
1907,197391.98462488982
1908,115647.08063862991
1909,138178.9256895808
1910,129293.29990571934
1911,198938.3406887691
1912,270527.05824961385
1913,124546.63877446827
1914,66180.83958792425
1915,380277.68211641046
1916,64788.91579461232
1917,247690.34425559736
1918,134626.17093065256
1919,159859.4941756072
1920,152652.71188642478
1921,378431.0710864648
1922,326310.9155551023
1923,203492.54898341894
1924,203440.72415921654
1925,217311.9075231604
1926,367357.193717302
1927,133844.03429441506
1928,160652.2619661277
1929,124011.59692783287
1930,140019.22103691474
1931,136176.28619725534
1932,142417.65174919067
1933,179017.66187745312
1934,179242.56803088065
1935,174953.6567560448
1936,184741.12348956428
1937,181832.20720408793
1938,175602.8253591686
1939,268141.50199826126
1940,191922.89374151168
1941,166299.0452036342
1942,190167.80512130552
1943,193431.65886797037
1944,347879.83735367085
1945,374395.2759377294
1946,154496.78885102528
1947,299948.7453942821
1948,140721.92203538772
1949,240192.11485997288
1950,187268.0667708247
1951,246334.30683379658
1952,224147.72911299157
1953,171587.42758063978
1954,192685.13881681708
1955,135523.5478723868
1956,267855.0657336726
1957,166430.9979697918
1958,313170.6447758126
1959,143354.65362045512
1960,117577.017971549
1961,125527.09541802197
1962,88311.15945462052
1963,96911.1753811577
1964,115070.68578363287
1965,152588.26077992615
1966,148154.47699191788
1967,304800.4012806353
1968,372876.373080559
1969,358213.44916869386
1970,388632.37255853636
1971,421228.6380110635
1972,357946.4607143531
1973,280313.2921771129
1974,333053.88318891096
1975,480805.6780754481
1976,275443.75933819765
1977,350876.6311482519
1978,327103.87576456816
1979,343194.7914473994
1980,196533.54668942053
1981,346144.1216679321
1982,244625.22698078823
1983,227678.0270525793
1984,169422.83786017308
1985,230289.53077153003
1986,214389.0797281902
1987,182423.0412381683
1988,178048.88181743002
1989,190427.45133986895
1990,221193.1474280844
1991,225862.48183117024
1992,225401.3296657869
1993,173796.40686608647
1994,232612.89774387405
1995,178909.73457880277
1996,258514.89129216954
1997,360297.1560615276
1998,341312.2645832221
1999,258356.73808360647
2000,293988.8543413967
2001,281277.6302350212
2002,245740.01414153236
2003,251428.53594553407
2004,278147.8732743026
2005,243999.95482200236
2006,219778.50987997677
2007,241800.0543198969
2008,205560.9691724158
2009,194656.60103609512
2010,187206.5736512743
2011,131520.41852112283
2012,179806.81861350065
2013,183127.09955232506
2014,193790.88436029307
2015,197549.9375549381
2016,194607.5035566976
2017,202452.82901531254
2018,129592.4507181393
2019,130927.41949749854
2020,113830.71676198617
2021,118825.13720825323
2022,171861.8314888184
2023,150806.50222064965
2024,246250.61328323119
2025,320417.38956444315
2026,183175.25983521927
2027,160938.94253414473
2028,147547.51844847976
2029,178061.8306897285
2030,277881.77674651105
2031,240452.06153242913
2032,263024.7851473784
2033,259327.87549410862
2034,170455.5413848955
2035,197096.07187754096
2036,175517.77486325242
2037,177694.4313540341
2038,283373.16284986446
2039,224332.41924817534
2040,358294.1323127779
2041,277224.902255296
2042,208175.7564305508
2043,165943.7560776704
2044,150576.9608192674
2045,199928.36000564357
2046,131011.75138425812
2047,146702.46735549832
2048,137674.85913914154
2049,132931.22962343282
2050,172030.61759197552
2051,115150.53321461721
2052,133245.28841872382
2053,137741.48165387346
2054,101660.30814399912
2055,123354.39554890225
2056,141679.0343672827
2057,129334.89299568294
2058,213807.87366752373
2059,143056.97113737965
2060,149246.1170115184
2061,161186.69997402423
2062,135597.43183261986
2063,121422.38256092813
2064,137716.14173095237
2065,88555.84733955888
2066,178339.9534070962
2067,126360.65111278044
2068,129551.14964742858
2069,76718.59276230921
2070,103935.42782184575
2071,110771.85387265669
2072,136624.8364429033
2073,144500.76405591116
2074,169373.1388782904
2075,139819.36182197873
2076,117643.40530996093
2077,144711.81722801062
2078,130610.2920248752
2079,137384.29842946792
2080,118446.96708866332
2081,125018.72306613332
2082,133464.07785338812
2083,142487.66547713382
2084,112127.65136989509
2085,130276.65745902473
2086,110578.26449599823
2087,123088.01411180435
2088,95685.72141761958
2089,98205.94516041633
2090,128010.6127999947
2091,108920.3135678711
2092,117553.82129364388
2093,104171.72302940195
2094,130966.19077168379
2095,145234.25727121954
2096,87585.45977555361
2097,102318.74855133223
2098,137522.70262833423
2099,50553.33418088537
2100,104620.88104040682
2101,110535.73744816774
2102,128169.79169151094
2103,109007.01750516341
2104,132487.95179029062
2105,120352.67428547646
2106,73314.84137494976
2107,175915.62350325377
2108,113894.3978758937
2109,110727.16066025554
2110,132675.76174156085
2111,133208.4230286456
2112,140386.68818835926
2113,112874.73057260338
2114,113143.23124566524
2115,143876.78968571447
2116,116936.2910338275
2117,135797.52937340754
2118,126576.290833284
2119,109220.50647336118
2120,114399.13382397994
2121,103108.64797365213
2122,110471.23589704103
2123,89081.52740573145
2124,151684.49937596318
2125,131740.80210165458
2126,158508.38244728005
2127,134493.48328425077
2128,129363.13930572991
2129,112372.47642009774
2130,132816.0272320156
2131,149787.18961620936
2132,111224.39086831053
2133,112549.38945102706
2134,123901.95221539769
2135,100494.35805168864
2136,66885.84388105119
2137,116913.82393590608
2138,138592.38627446414
2139,152737.61507473237
2140,132914.05413359404
2141,138517.11515726088
2142,135381.86311109632
2143,142805.6798059572
2144,127217.02416654435
2145,134965.8586624443
2146,166268.307064184
2147,161973.10745438276
2148,136083.43041358952
2149,138227.81900951156
2150,207694.2633000181
2151,118219.99297194908
2152,149629.26968223782
2153,146877.86901170347
2154,93203.18816908695
2155,147153.8137304138
2156,234058.60034771933
2157,224991.80817874163
2158,234947.0685406967
2159,218926.89031675464
2160,175501.54858484195
2161,247756.00762710974
2162,424781.717123868
2163,378038.38353390637
2164,292051.44114624127
2165,193372.9114809319
2166,144225.40610840588
2167,202701.22183477282
2168,209579.7592226758
2169,195880.8284331315
2170,218473.8453426748
2171,146588.656183665
2172,133602.44384942236
2173,155771.19074803105
2174,229394.79187662932
2175,293309.11915194534
2176,333417.6544190292
2177,247840.49224668602
2178,217555.7281925974
2179,147416.01474512724
2180,172219.92747259108
2181,201879.10900746912
2182,228303.1324005612
2183,191798.6074999207
2184,132538.8588016241
2185,132366.95410425292
2186,128118.34751885466
2187,154658.5552792799
2188,153885.67333302155
2189,198054.8803156608
2190,80489.90797395489
2191,84769.6072216124
2192,84960.46913469178
2193,99936.48231805062
2194,110662.40862224947
2195,110215.01400734567
2196,109143.19040441571
2197,117166.76762020042
2198,141833.13850873194
2199,175728.71657118862
2200,150877.73848319435
2201,136889.51858718102
2202,187064.17609827584
2203,169205.0122772509
2204,167357.1636382924
2205,123781.94316799844
2206,118966.51007804289
2207,215097.70120361508
2208,230910.60758830095
2209,190333.22430517888
2210,125102.07000705246
2211,116808.62467755575
2212,111915.15639246543
2213,101828.20178278677
2214,121063.15084107425
2215,106959.36197089362
2216,135870.52082728813
2217,59831.30940198899
2218,80035.63599989646
2219,69063.22218441853
2220,94340.73367736569
2221,379665.9843380183
2222,252218.48868347696
2223,271573.58934035024
2224,214204.5849319172
2225,138479.89028971092
2226,169939.24747281955
2227,209204.49036825233
2228,289526.92392376356
2229,240356.89430309497
2230,164429.2514932722
2231,215381.87533154388
2232,175796.71573481636
2233,180513.71390070085
2234,251304.64070498798
2235,212630.28781569915
2236,259955.37138846546
2237,329244.18553033884
2238,205663.8967319891
2239,100821.6092092222
2240,161773.33517413563
2241,130837.28089973809
2242,129228.14049727476
2243,128632.34171125558
2244,88673.86870430203
2245,96857.49235479921
2246,146312.04092299784
2247,101112.50745129671
2248,124063.54944007171
2249,126854.93484086503
2250,135403.77003334812
2251,118189.95318222843
2252,170723.92167731983
2253,167312.10379103624
2254,179795.79452821834
2255,185113.26412689404
2256,178452.09324550602
2257,197555.8433397214
2258,173628.41886171344
2259,179090.95876855726
2260,155153.25410266776
2261,194369.27231562158
2262,201491.40944503067
2263,363812.20953123557
2264,405286.2194338608
2265,146187.88529414154
2266,287293.44115040795
2267,298301.07339576597
2268,396575.3774493478
2269,162370.35921849616
2270,180201.17216323968
2271,214640.182622517
2272,210893.07304343316
2273,167321.65068905745
2274,176255.41731146243
2275,166797.160342628
2276,179730.25176034047
2277,189795.44580219328
2278,142700.48596173548
2279,121795.94188874005
2280,110043.16923790588
2281,181996.51527374415
2282,189880.31216254932
2283,95195.57814516741
2284,111556.06401682312
2285,131864.3409887122
2286,129085.48834515209
2287,372006.9105980125
2288,265933.44282639486
2289,365593.7268936112
2290,425414.2937621313
2291,308142.3080660288
2292,420405.9079898673
2293,462446.9271632897
2294,383553.5094385987
2295,443756.0720960299
2296,259319.92934991908
2297,336187.3025573172
2298,360667.4221560618
2299,338003.65461540874
2300,328649.6825956702
2301,306138.3514107509
2302,239351.4737379807
2303,235729.47520978743
2304,245067.2479754112
2305,186522.02278066266
2306,187384.8961098192
2307,192882.2468328066
2308,210182.64713781295
2309,281323.1513486061
2310,235333.79060948762
2311,189984.01352203861
2312,169508.14361743658
2313,176595.2693846404
2314,174518.9808388036
2315,175845.12396134902
2316,205290.2707829592
2317,181660.88383760827
2318,178407.87465011785
2319,176408.79279328688
2320,180346.72259661523
2321,270475.8955729377
2322,165947.68614207808
2323,186189.1115543321
2324,175545.8712211549
2325,210178.54382094438
2326,167173.83649305327
2327,217195.3951227955
2328,221069.14399622448
2329,184522.80053209155
2330,174932.49233800406
2331,342705.51472673053
2332,442530.30115066335
2333,318396.71410306124
2334,272163.0979619752
2335,265358.4155606759
2336,295366.19013999525
2337,204569.05242043082
2338,275204.7984377565
2339,224734.7359874761
2340,376753.1765983592
2341,209665.32866642138
2342,233827.60534686895
2343,217382.76138020068
2344,229909.14518068224
2345,237208.4419929563
2346,213174.3152237939
2347,196173.71672022762
2348,220601.13386200333
2349,159868.29964287337
2350,308409.52412198513
2351,266319.6204557402
2352,192792.5773907768
2353,247243.86119516485
2354,119049.455641403
2355,145475.53787379415
2356,152207.48557516
2357,200854.1777574964
2358,196788.7108998709
2359,125997.37804636489
2360,126584.47884645783
2361,136941.41859763494
2362,257707.31488323933
2363,140286.0989047442
2364,150650.91376638834
2365,222255.09514242536
2366,195347.80972782406
2367,224859.10591699887
2368,206739.5667197969
2369,215243.87152091475
2370,174065.68990680983
2371,174293.3000676498
2372,169922.63080297757
2373,255082.86486488328
2374,276818.68103197124
2375,244571.80941838332
2376,255710.67769443034
2377,296172.41511495225
2378,149874.00457150573
2379,199431.56669235474
2380,145444.301460114
2381,161564.2592732589
2382,189492.46549826112
2383,200090.65598276048
2384,241012.95408790902
2385,160553.69769346315
2386,139982.171732468
2387,136910.3924710994
2388,97365.8959760105
2389,127252.07873622561
2390,153409.88079316853
2391,135285.6153960378
2392,113023.70956328715
2393,162165.99329110282
2394,152563.45618599144
2395,198059.2117444847
2396,146565.40587513478
2397,187947.49260251957
2398,132405.4252449268
2399,62560.15054832662
2400,68018.90806084799
2401,120599.19861804237
2402,134310.54541538827
2403,129142.05012643819
2404,159261.6283678819
2405,161844.10919233915
2406,133788.0951893617
2407,128208.52507634672
2408,142679.4465843931
2409,136545.3711337026
2410,162662.83423945608
2411,122481.47464675906
2412,150530.49429280995
2413,138169.3183943544
2414,132571.45224922962
2415,126942.96389680619
2416,128646.15401026695
2417,135134.80763436537
2418,126978.16749385517
2419,128926.25289196841
2420,124275.63965666505
2421,143241.01199453595
2422,119239.42711501883
2423,114995.10849709503
2424,142505.290440195
2425,173881.9719162987
2426,113973.22960993931
2427,127887.63618180367
2428,159613.76656158376
2429,115254.6744793148
2430,131574.58116928517
2431,123158.23176042881
2432,137745.718190127
2433,142207.00397186744
2434,143071.61597963524
2435,149111.69975875746
2436,109754.68546460678
2437,117195.54279734766
2438,123451.83953857665
2439,115251.78048998874
2440,125399.90694417046
2441,91317.1638494483
2442,107191.31571933156
2443,118620.31165053337
2444,127435.85911549092
2445,83396.62288805694
2446,130681.50553037597
2447,170818.70741156567
2448,140696.32947468452
2449,112578.4265099657
2450,144448.14011526175
2451,132657.80863574782
2452,188792.11844626855
2453,102522.03046100403
2454,122297.49209891383
2455,98738.11724722928
2456,123330.0875392383
2457,116816.9309618267
2458,120085.67260196495
2459,113173.9137992141
2460,144147.00750266004
2461,123511.12419475729
2462,128723.36283542225
2463,121147.72423235417
2464,139822.74931865715
2465,137262.95843191474
2466,120149.09615880116
2467,152189.76170895182
2468,99895.78644294168
2469,88548.84912982343
2470,171690.9788710826
2471,166638.34238324047
2472,152092.97710415183
2473,112836.6699466953
2474,95110.01006251942
2475,202152.5869463272
2476,104330.38349531467
2477,130162.85360931173
2478,152688.4319845777
2479,117651.74253991853
2480,144888.79396311363
2481,128694.62241787447
2482,135635.5248513586
2483,118928.61624133209
2484,124244.11940487067
2485,130899.98303452025
2486,146018.03869960146
2487,176178.07951947665
2488,142427.99726013897
2489,161497.64264922618
2490,153835.4781889733
2491,80431.38271947445
2492,184149.9550894345
2493,151025.35314800922
2494,149011.5827448888
2495,92671.32247463262
2496,212276.43476718274
2497,137872.62628764752
2498,119968.58501267574
2499,90037.43543678576
2500,143574.77253845308
2501,128197.09951991352
2502,124054.17819912673
2503,81937.7926179307
2504,178576.54617848605
2505,223308.67408251375
2506,252009.92691615084
2507,290649.35534347367
2508,251590.3280452626
2509,218885.66235992612
2510,228043.94134039406
2511,184621.07668703562
2512,214179.23655352677
2513,218675.09866971197
2514,246587.4716575776
2515,148173.96765624863
2516,182716.656742481
2517,131453.1992428726
2518,138955.95121185214
2519,238507.99938600184
2520,216407.33178961786
2521,192227.71110748613
2522,222461.29748905773
2523,128409.03398663295
2524,141322.94847447332
2525,139433.13633322553
2526,137659.324937061
2527,122294.88776589086
2528,127376.57265480737
2529,124484.6790863138
2530,117750.2697815053
2531,244365.15722247973
2532,232709.55334806387
2533,195495.46529869884
2534,246773.61917724204
2535,275381.4699028076
2536,230191.6233629377
2537,228930.16942702088
2538,183142.90663127202
2539,189322.55289252667
2540,178640.26860443008
2541,179966.03977912874
2542,168540.0168096768
2543,119987.03465720407
2544,118015.66208607098
2545,134684.70745700487
2546,136980.19080937424
2547,127341.05561017753
2548,145375.99866030927
2549,164008.409500741
2550,241249.76746605523
2551,147718.2257105534
2552,122581.12440441601
2553,83565.03663311563
2554,106656.81134532219
2555,115837.8179649699
2556,111803.2833129581
2557,114366.4765452956
2558,123015.49886243648
2559,137086.29362179321
2560,144411.42596150955
2561,136632.77501923183
2562,137493.90178064222
2563,155417.18963555884
2564,180929.48869409005
2565,151844.3573614612
2566,144311.3979396173
2567,133119.95450527561
2568,181897.92570232783
2569,191491.2574330612
2570,123939.65230553038
2571,168535.18023680698
2572,153071.4949489482
2573,211353.90077349948
2574,270514.38567880134
2575,121463.93627038089
2576,122200.65090570321
2577,139437.8902515965
2578,92310.88368336624
2579,90026.98312516825
2580,114927.38068285308
2581,119105.71526566814
2582,119388.11456586233
2583,283722.3469562519
2584,160828.81881300683
2585,193036.82050284382
2586,204617.32409641217
2587,186930.78375606282
2588,138566.310461538
2589,148232.31886178794
2590,219764.9973707975
2591,209777.6445853377
2592,222259.79426014988
2593,265295.4910644503
2594,172023.15706440367
2595,202704.51211997535
2596,316012.3966447317
2597,194263.0970735043
2598,300135.1808100454
2599,363961.0576223432
2600,123150.22383754217
2601,142157.5249190891
2602,83435.99240074726
2603,89743.59947295507
2604,81888.24555813157
2605,78994.73597618041
2606,153519.3172186068
2607,184125.59423760808
2608,180043.0465182492
2609,162005.11187044065
2610,109118.16235253737
2611,120468.20948903744
2612,148507.1085629123
2613,126759.69627106692
2614,126450.21145418118
2615,157359.05648012657
2616,139000.43475591275
2617,165462.23972726194
2618,187673.50460477688
2619,199736.2301401957
2620,187217.24076273144
2621,175868.82368055297
2622,178245.13936761438
2623,241328.3771558196
2624,291869.2167741359
2625,265923.3744143881
2626,167709.45356047325
2627,165374.94558336958
2628,472058.29640465893
2629,465339.5462364759
2630,393482.8144146012
2631,464055.49434568675
2632,455515.88293398847
2633,297018.14865911804
2634,406620.22451817937
2635,154875.25205117732
2636,188818.69416935503
2637,181156.13692285243
2638,253232.9853683751
2639,182105.6600887616
2640,154213.26539899013
2641,114283.29280205739
2642,190802.15964460536
2643,107321.4953095145
2644,141038.59210613914
2645,98384.7482092257
2646,88378.09793671926
2647,97762.38938642522
2648,132147.75872132232
2649,146865.52651702854
2650,130285.94885423862
2651,150255.9788335923
2652,446567.88960409124
2653,204033.39201704756
2654,255501.93455133075
2655,391554.0457645214
2656,364271.55800619465
2657,308111.3474536313
2658,274804.555025579
2659,303321.7431487682
2660,338216.6665089414
2661,375533.40892303374
2662,345797.38688809617
2663,290066.6080399333
2664,282178.749879827
2665,352797.9219429478
2666,297827.66033010394
2667,173614.63995500977
2668,173977.95073200695
2669,175983.87895025342
2670,279336.2092245306
2671,176956.41151812658
2672,188967.95076039885
2673,209537.22842987924
2674,206600.05086871385
2675,173376.1744202005
2676,186403.96334085093
2677,189564.158711608
2678,241643.19679424737
2679,291760.4267873048
2680,293977.5925018961
2681,412374.58768491854
2682,306535.10455500975
2683,570336.7881240395
2684,319347.8012609835
2685,328829.0749814502
2686,256852.98341387216
2687,318409.42957526626
2688,218903.73694187173
2689,204028.50416649593
2690,465778.8932680327
2691,195180.52407963513
2692,122123.38679740572
2693,191921.76984877666
2694,116643.15319771995
2695,191681.4603969174
2696,186000.54921795323
2697,189847.34801219433
2698,197955.96262913765
2699,177179.55088642612
2700,160656.21128683657
2701,168746.6308036732
2702,123597.29912731699
2703,126126.79535274184
2704,136717.51757957495
2705,127672.96068031545
2706,123392.04709750605
2707,132713.0686361857
2708,132868.9736892563
2709,85483.32634497322
2710,124136.7023360822
2711,276474.38025198807
2712,371046.3716424856
2713,177250.73754853048
2714,146697.21059053965
2715,172050.62034219818
2716,169089.26931543366
2717,193165.417179416
2718,236006.7919662246
2719,156751.02727759947
2720,167531.3682367411
2721,143435.3427746193
2722,158111.15876110995
2723,151989.7058527888
2724,129919.01877235115
2725,140007.87526634036
2726,137462.17309605624
2727,158205.37882240163
2728,165412.11466782392
2729,151085.12483934985
2730,139770.93902354754
2731,125391.72199001462
2732,117483.20803961386
2733,156792.8683641812
2734,146823.91249869586
2735,132494.3221423643
2736,148961.5869302269
2737,123472.05522096483
2738,132033.67329367192
2739,161981.93614705728
2740,138712.5510918029
2741,150947.7360808683
2742,156180.716137845
2743,149970.60659518244
2744,147185.43678971808
2745,140125.4834740865
2746,130589.63042685496
2747,163732.9537759571
2748,129494.48732758549
2749,131825.3332370862
2750,131679.38135567907
2751,129649.95427589201
2752,267152.56920170464
2753,142760.47086358973
2754,182718.75530657958
2755,130075.04039095776
2756,97313.86589290349
2757,75022.4655246606
2758,98660.42046361661
2759,156608.87792998832
2760,137589.05832422676
2761,141127.04056944812
2762,146988.09901274226
2763,180326.65522984293
2764,175551.85322314015
2765,243073.89901859438
2766,120151.06803306492
2767,88949.9012747833
2768,122953.7582374473
2769,134407.98074944588
2770,141410.1271246976
2771,116338.72170391992
2772,114532.13535651618
2773,143113.64235657785
2774,133566.43158725332
2775,115055.50312409419
2776,136444.83723556818
2777,140756.1299165486
2778,100555.46091988334
2779,119494.04424052927
2780,93717.160404732
2781,104139.41837817384
2782,103335.35807476097
2783,112396.23032892386
2784,127683.41436060409
2785,133402.317954736
2786,94010.53828550315
2787,111769.8402034985
2788,97809.53727421968
2789,148043.9086669002
2790,91913.72686355821
2791,114884.1358613535
2792,62326.083558534025
2793,146941.3543277133
2794,106178.09962560316
2795,119381.65444121195
2796,95665.27425044402
2797,171634.3401708726
2798,103662.88212475825
2799,94841.9690354952
2800,73405.88667718026
2801,109566.90039761823
2802,132928.22914171967
2803,148435.78235285362
2804,136996.98091539412
2805,96561.27033522537
2806,102825.00602939994
2807,142281.84573862306
2808,149939.5897629132
2809,135338.703424012
2810,136412.4904287407
2811,154103.81351162656
2812,143751.27123100066
2813,145701.85839751046
2814,153987.75722412008
2815,94959.15003415785
2816,218849.90069264843
2817,150139.32197475436
2818,135802.5759297039
2819,184246.74924978305
2820,150634.9025197158
2821,108058.47153770311
2822,195977.4295450363
2823,228914.2094842934
2824,181325.44638761933
2825,141676.9804025418
2826,129494.0731017519
2827,133536.93589016993
2828,227576.31137218932
2829,198973.52096104182
2830,229729.10470301515
2831,190412.2692686953
2832,222877.00913156784
2833,316739.2230354043
2834,219387.67737925466
2835,222586.2857480741
2836,192121.1211768142
2837,173222.72139187704
2838,145693.16599784695
2839,176281.79899604546
2840,191769.0250125786
2841,202110.0360138073
2842,219941.79101615725
2843,153978.4282093505
2844,146287.32816898698
2845,122997.3030593416
2846,208114.9329623644
2847,199967.63320616898
2848,218284.75173124767
2849,208233.0295876857
2850,288273.8464149905
2851,217061.14382826159
2852,223866.51076655937
2853,228745.99290058398
2854,136721.82447288983
2855,200251.39297170768
2856,207193.1972103421
2857,187755.28004271278
2858,197062.00039494678
2859,136988.49589703465
2860,128584.45146442651
2861,132441.0723042568
2862,192528.0739992997
2863,117335.12656309352
2864,238652.76488233253
2865,141244.43892305443
2866,135888.56441823227
2867,107867.60995229105
2868,121764.04278115118
2869,101083.58396297337
2870,144267.16203025996
2871,102844.60055713092
2872,63027.449632035954
2873,101683.41987040419
2874,123374.12845773014
2875,105019.22285538894
2876,149149.65836792914
2877,142164.07769489998
2878,166662.68330574277
2879,137647.33435110052
2880,114715.51531658249
2881,153765.19261949667
2882,165459.21668653568
2883,193432.4809950429
2884,193565.2444431729
2885,184847.73337378108
2886,194180.12975117413
2887,93901.25950414638
2888,125522.88088677889
2889,51301.204073989684
2890,96699.66004411865
2891,131216.6479617491
2892,56394.601411777076
2893,90828.42477098264
2894,68419.5723614048
2895,314331.9802490132
2896,276608.085362564
2897,188741.3154912188
2898,147333.92202094843
2899,220817.16282163217
2900,159534.9973693384
2901,195642.80950342191
2902,188822.61875107835
2903,334508.591420656
2904,364031.0817072071
2905,109938.6114274038
2906,197437.54738697346
2907,113911.18174324869
2908,128634.03041821001
2909,149418.4754568903
2910,84167.77819029496
2911,83751.80707425071
2912,152631.27983092735
2913,91710.79864019492
2914,86750.92996589234
2915,85336.92345988081
2916,89370.09498214908
2917,147848.25803071438
2918,107990.05377949467
2919,212299.1082795526
